module gitlab.eclipse.org/eclipse/xfsc/organisational-credential-manager-w-stack/credential-retrieval-service

go 1.21.4

require (
	github.com/cloudevents/sdk-go/v2 v2.14.0
	github.com/google/go-cmp v0.5.9
	github.com/lestrrat-go/jwx/v2 v2.0.16
	github.com/sirupsen/logrus v1.9.3
	github.com/stretchr/testify v1.8.4
	gitlab.eclipse.org/eclipse/xfsc/libraries/crypto/jwt v0.0.0-20231122142143-48c1c75905d6
	gitlab.eclipse.org/eclipse/xfsc/libraries/messaging/cloudeventprovider v0.0.7
	gitlab.eclipse.org/eclipse/xfsc/libraries/microservice/core v0.0.0-20240116092736-449df81aa64d
)

require (
	github.com/Azure/go-amqp v0.17.0 // indirect
	github.com/Shopify/sarama v1.38.1 // indirect
	github.com/bytedance/sonic v1.10.2 // indirect
	github.com/chenzhuoyu/base64x v0.0.0-20230717121745-296ad89f973d // indirect
	github.com/chenzhuoyu/iasm v0.9.1 // indirect
	github.com/cloudevents/sdk-go/protocol/amqp/v2 v2.14.0 // indirect
	github.com/cloudevents/sdk-go/protocol/kafka_sarama/v2 v2.14.0 // indirect
	github.com/cloudevents/sdk-go/protocol/mqtt_paho/v2 v2.0.0-20231030012137-0836a524e995 // indirect
	github.com/cloudevents/sdk-go/protocol/nats/v2 v2.14.0 // indirect
	github.com/cloudevents/sdk-go/protocol/nats_jetstream/v2 v2.14.0 // indirect
	github.com/davecgh/go-spew v1.1.2-0.20180830191138-d8f796af33cc // indirect
	github.com/decred/dcrd/dcrec/secp256k1/v4 v4.2.0 // indirect
	github.com/eapache/go-resiliency v1.4.0 // indirect
	github.com/eapache/go-xerial-snappy v0.0.0-20230731223053-c322873962e3 // indirect
	github.com/eapache/queue v1.1.0 // indirect
	github.com/eclipse/paho.golang v0.11.0 // indirect
	github.com/fsnotify/fsnotify v1.7.0 // indirect
	github.com/gabriel-vasile/mimetype v1.4.3 // indirect
	github.com/gin-contrib/sse v0.1.0 // indirect
	github.com/gin-gonic/gin v1.9.1 // indirect
	github.com/go-logr/logr v1.4.1 // indirect
	github.com/go-logr/zapr v1.3.0 // indirect
	github.com/go-playground/locales v0.14.1 // indirect
	github.com/go-playground/universal-translator v0.18.1 // indirect
	github.com/go-playground/validator/v10 v10.16.0 // indirect
	github.com/goccy/go-json v0.10.2 // indirect
	github.com/golang-jwt/jwt v3.2.2+incompatible // indirect
	github.com/golang/snappy v0.0.4 // indirect
	github.com/google/uuid v1.4.0 // indirect
	github.com/hashicorp/errwrap v1.0.0 // indirect
	github.com/hashicorp/go-multierror v1.1.1 // indirect
	github.com/hashicorp/go-uuid v1.0.3 // indirect
	github.com/hashicorp/hcl v1.0.0 // indirect
	github.com/jcmturner/aescts/v2 v2.0.0 // indirect
	github.com/jcmturner/dnsutils/v2 v2.0.0 // indirect
	github.com/jcmturner/gofork v1.7.6 // indirect
	github.com/jcmturner/gokrb5/v8 v8.4.4 // indirect
	github.com/jcmturner/rpc/v2 v2.0.3 // indirect
	github.com/json-iterator/go v1.1.12 // indirect
	github.com/klauspost/compress v1.17.0 // indirect
	github.com/klauspost/cpuid/v2 v2.2.6 // indirect
	github.com/leodido/go-urn v1.2.4 // indirect
	github.com/lestrrat-go/blackmagic v1.0.2 // indirect
	github.com/lestrrat-go/httpcc v1.0.1 // indirect
	github.com/lestrrat-go/httprc v1.0.4 // indirect
	github.com/lestrrat-go/iter v1.0.2 // indirect
	github.com/lestrrat-go/option v1.0.1 // indirect
	github.com/magiconair/properties v1.8.7 // indirect
	github.com/mattn/go-isatty v0.0.20 // indirect
	github.com/mitchellh/mapstructure v1.5.0 // indirect
	github.com/modern-go/concurrent v0.0.0-20180306012644-bacd9c7ef1dd // indirect
	github.com/modern-go/reflect2 v1.0.2 // indirect
	github.com/nats-io/nats.go v1.31.0 // indirect
	github.com/nats-io/nkeys v0.4.6 // indirect
	github.com/nats-io/nuid v1.0.1 // indirect
	github.com/pelletier/go-toml/v2 v2.1.1 // indirect
	github.com/pierrec/lz4/v4 v4.1.18 // indirect
	github.com/pmezard/go-difflib v1.0.1-0.20181226105442-5d4384ee4fb2 // indirect
	github.com/rcrowley/go-metrics v0.0.0-20201227073835-cf1acfcdf475 // indirect
	github.com/sagikazarmark/locafero v0.4.0 // indirect
	github.com/sagikazarmark/slog-shim v0.1.0 // indirect
	github.com/segmentio/asm v1.2.0 // indirect
	github.com/sourcegraph/conc v0.3.0 // indirect
	github.com/spf13/afero v1.11.0 // indirect
	github.com/spf13/cast v1.6.0 // indirect
	github.com/spf13/pflag v1.0.5 // indirect
	github.com/spf13/viper v1.18.2 // indirect
	github.com/subosito/gotenv v1.6.0 // indirect
	github.com/twitchyliquid64/golang-asm v0.15.1 // indirect
	github.com/ugorji/go/codec v1.2.12 // indirect
	gitlab.eclipse.org/eclipse/xfsc/libraries/crypto/engine/core v0.0.0-20231109072850-c268bd1b9cee // indirect
	go.uber.org/multierr v1.11.0 // indirect
	go.uber.org/zap v1.26.0 // indirect
	golang.org/x/arch v0.7.0 // indirect
	golang.org/x/crypto v0.18.0 // indirect
	golang.org/x/exp v0.0.0-20240103183307-be819d1f06fc // indirect
	golang.org/x/net v0.20.0 // indirect
	golang.org/x/sync v0.5.0 // indirect
	golang.org/x/sys v0.16.0 // indirect
	golang.org/x/text v0.14.0 // indirect
	google.golang.org/protobuf v1.32.0 // indirect
	gopkg.in/ini.v1 v1.67.0 // indirect
	gopkg.in/yaml.v3 v3.0.1 // indirect
)
